Capítulo 9 Modelos de Regressão Dinâmicos | Séries Temporais com R
…
elec_splits %>% 
    tk_time_series_cv_plan() %>% 
  plot_time_series_cv_plan(Date, 
                           Demand,
                           .title = "Base de Treinamento e Teste")

receita_elec <- recipe(Demand ~ ., data = training(elec_splits)) %>% 
  step_rm(Holiday) %>% 
  step_dummy(Day_Type) %>% 
  step_poly(Temperature)

receita_elec %>% prep() %>% bake(new_data = NULL)

## # A tibble: 273 x 6
##    Date       Demand Day_Type_Feriado Day_Type_Fim.de.semana Temperature_poly_1 Temperature_poly_2
##    <date>      <dbl>            <dbl>                  <dbl>              <dbl>              <dbl>
##  1 2014-01-01   175.                1                      0            0.0519            -0.0544 
##  2 2014-01-02   188.                0                      1            0.0234            -0.0547 
##  3 2014-01-03   189.                0                      1            0.0159            -0.0517 
##  4 2014-01-04   174.                0                      0           -0.00212           -0.0393 
##  5 2014-01-05   170.                0                      0            0.0528            -0.0541 
##  6 2014-01-06   195.                0                      1           -0.00875           -0.0330 
##  7 2014-01-07   200.                0                      1           -0.00496           -0.0367 
##  8 2014-01-08   205.                0                      1            0.0651            -0.0481 
##  9 2014-01-09   227.                0                      1            0.112              0.00669
## 10 2014-01-10   258.                0                      1            0.128              0.0349 
## # ... with 263 more rows
…
